<?xml version="1.0" encoding="utf-8"?>
<svg version="1.1" id="Layer_1" xmlns="http://www.w3.org/2000/svg" xmlns:xlink="http://www.w3.org/1999/xlink" x="0px" y="0px"
	 width="74px" height="72px" viewBox="0 0 74 72" enable-background="new 0 0 74 72" xml:space="preserve">
<path d="M36.778,18.155c-9.624,0-17.453,7.828-17.453,17.451c0,9.624,7.829,17.453,17.453,17.453S54.23,45.229,54.23,35.606
	C54.23,25.983,46.401,18.155,36.778,18.155z M36.778,50.242c-8.071,0-14.637-6.566-14.637-14.637c0-8.07,6.566-14.636,14.637-14.636
	s14.637,6.566,14.637,14.636C51.415,43.676,44.849,50.242,36.778,50.242z"/>
<path d="M38.186,1.781c0-0.775-0.632-1.406-1.409-1.406c-0.776,0-1.408,0.631-1.408,1.406v7.43c0,0.776,0.631,1.408,1.408,1.408
	c0.777,0,1.409-0.632,1.409-1.408V1.781z"/>
<path d="M53.523,17.273c-0.547,0.55-0.547,1.443,0.001,1.991c0.533,0.531,1.459,0.533,1.992,0l6.386-6.387
	c0.267-0.266,0.413-0.618,0.413-0.994c0.001-0.376-0.146-0.73-0.412-0.997c-0.267-0.265-0.62-0.412-0.996-0.412
	s-0.729,0.146-0.993,0.412L53.523,17.273z"/>
<path d="M8.808,12.877l6.389,6.387c0.528,0.531,1.455,0.534,1.991,0c0.548-0.547,0.547-1.44-0.001-1.991l-6.389-6.386
	c-0.266-0.266-0.619-0.412-0.995-0.412c-0.376,0-0.73,0.146-0.996,0.412C8.26,11.436,8.26,12.329,8.808,12.877z"/>
<path d="M36.764,61.723c0-0.776-0.631-1.408-1.407-1.408c-0.776,0-1.408,0.632-1.408,1.408v7.43c0,0.776,0.631,1.408,1.408,1.408
	c0.776,0,1.407-0.632,1.407-1.408V61.723z"/>
<path d="M18.609,51.668c-0.266-0.267-0.62-0.413-0.996-0.413c-0.375,0-0.729,0.146-0.995,0.413l-6.387,6.388
	c-0.266,0.266-0.412,0.619-0.412,0.996c0,0.376,0.146,0.73,0.412,0.995c0.535,0.532,1.459,0.53,1.99,0l6.388-6.389
	C19.157,53.109,19.158,52.216,18.609,51.668z"/>
<path d="M54.947,53.658l6.389,6.389c0.533,0.531,1.455,0.533,1.988-0.002c0.55-0.549,0.55-1.441,0-1.99l-6.387-6.387
	c-0.267-0.267-0.62-0.413-0.996-0.413c-0.375-0.001-0.729,0.146-0.994,0.412C54.399,52.217,54.399,53.109,54.947,53.658z"/>
<path d="M9.804,34.195H1.783c-0.776,0-1.408,0.632-1.408,1.408s0.632,1.408,1.408,1.408h8.022c0.775,0,1.406-0.632,1.407-1.408
	C11.212,34.827,10.581,34.195,9.804,34.195z"/>
<path d="M70.418,34.195h-9.509c-0.776,0-1.408,0.632-1.408,1.408s0.632,1.408,1.408,1.408h9.509c0.776,0,1.408-0.631,1.408-1.408
	S71.194,34.195,70.418,34.195z"/>
</svg>
