<?xml version="1.0" encoding="utf-8"?>
<svg version="1.1" id="Layer_1" xmlns="http://www.w3.org/2000/svg" xmlns:xlink="http://www.w3.org/1999/xlink" x="0px" y="0px"
	 width="48px" height="48px" viewBox="0 0 48 48" enable-background="new 0 0 48 48" xml:space="preserve">
<path d="M44.712,22.885c-0.084-0.031-0.176-0.048-0.27-0.048c-0.237,0-0.46,0.104-0.608,0.286
	c-2.917,3.554-7.221,5.592-11.807,5.592c-8.415,0-15.261-6.846-15.261-15.261c0-4.238,1.708-8.18,4.811-11.1
	c0.244-0.229,0.314-0.588,0.176-0.894C21.626,1.18,21.349,1,21.045,1c-0.026,0-0.052,0.001-0.078,0.004
	C9.583,2.109,1,11.574,1,23.02c0,12.2,9.926,22.125,22.126,22.125c12.056,0,21.761-9.445,22.095-21.503
	C45.23,23.307,45.025,23.002,44.712,22.885z M42.933,28.521c-2.415,8.867-10.561,15.061-19.807,15.061
	c-11.337,0-20.561-9.224-20.561-20.561c0-8.718,5.492-16.507,13.667-19.38l2.553-0.897l-1.356,2.342
	c-1.458,2.517-2.228,5.412-2.228,8.372c0,9.278,7.549,16.827,16.827,16.827c3.363,0,6.607-0.987,9.382-2.854l2.229-1.502
	L42.933,28.521z"/>
</svg>
