<?xml version="1.0" encoding="utf-8"?>
<svg version="1.1" id="Layer_1" xmlns="http://www.w3.org/2000/svg" xmlns:xlink="http://www.w3.org/1999/xlink" x="0px" y="0px"
	 width="102px" height="98px" viewBox="0 0 102 98" enable-background="new 0 0 102 98" xml:space="preserve">
<path id="path0_fill" d="M28.437,75.572c0,2.83-2.297,5.125-5.128,5.125c-2.83,0-5.125-2.295-5.125-5.125S23.309,65.1,23.309,65.1
	S28.437,72.742,28.437,75.572z"/>
<path id="path1_fill" d="M50.497,91.172c0,2.832-2.294,5.127-5.128,5.127c-2.83,0-5.125-2.295-5.125-5.127
	c0-2.83,5.125-10.472,5.125-10.472S50.497,88.342,50.497,91.172z"/>
<path id="path2_fill" d="M71.442,85.834c0,2.83-2.294,5.124-5.124,5.124s-5.129-2.294-5.129-5.124s5.129-10.475,5.129-10.475
	S71.442,83.004,71.442,85.834z"/>
<path id="path3_fill" d="M48.428,65.107c-8.574,0-16.124-5.331-19.085-13.213c-2.78,1.359-5.827,2.07-8.931,2.07
	C9.158,53.965,0,44.808,0,33.551c0-11.256,9.158-20.413,20.413-20.413c1.974,0,3.915,0.286,5.797,0.845
	C28.946,5.657,36.646,0,45.58,0c4.331,0,8.557,1.387,12.04,3.93C61.961,1.354,66.888,0,71.947,0
	c15.524,0,28.154,12.628,28.154,28.149c0,15.522-12.629,28.153-28.154,28.153c-2.072,0-4.168-0.244-6.251-0.724
	C61.968,61.488,55.475,65.107,48.428,65.107z M30.386,47.488c0.222,0,0.448,0.041,0.659,0.126c0.531,0.211,0.93,0.665,1.07,1.218
	c1.894,7.482,8.602,12.709,16.314,12.709c6.204,0,11.888-3.397,14.837-8.868c0.396-0.733,1.247-1.097,2.051-0.871
	c2.209,0.618,4.441,0.934,6.631,0.934c13.558,0,24.588-11.031,24.588-24.588S85.504,3.563,71.947,3.563
	c-4.793,0-9.45,1.393-13.463,4.029c-0.658,0.43-1.52,0.381-2.121-0.121c-3.02-2.519-6.85-3.908-10.782-3.908
	c-7.923,0-14.678,5.398-16.42,13.125c-0.115,0.51-0.451,0.945-0.917,1.188c-0.463,0.243-1.011,0.27-1.496,0.071
	c-2.028-0.826-4.158-1.243-6.334-1.243c-9.289,0-16.848,7.559-16.848,16.849s7.557,16.849,16.848,16.849
	c3.19,0,6.307-0.911,9.016-2.633C29.72,47.583,30.052,47.488,30.386,47.488z"/>
</svg>
