<?xml version="1.0" encoding="utf-8"?>
<svg version="1.1" id="Layer_1" xmlns="http://www.w3.org/2000/svg" xmlns:xlink="http://www.w3.org/1999/xlink" x="0px" y="0px"
	 width="112px" height="116px" viewBox="0 0 112 116" enable-background="new 0 0 112 116" xml:space="preserve">
<path id="path0_fill" d="M111.119,23.668c0.023-0.761-0.443-1.452-1.158-1.72c-0.711-0.262-1.519-0.048-2.002,0.539
	c-2.725,3.321-6.743,5.228-11.033,5.228c-7.863,0-14.262-6.397-14.262-14.261c0-3.96,1.598-7.642,4.498-10.374
	c0.555-0.522,0.717-1.34,0.402-2.033c-0.316-0.695-1.035-1.114-1.797-1.038c-11.414,1.108-20.111,10.263-20.8,21.566
	c-3.068-1.819-6.644-2.853-10.447-2.853c-0.181,0-0.361,0.015-0.542,0.023c-1.47,0.038-2.927,0.226-4.341,0.577
	c-2.566,0.636-5.003,1.762-7.155,3.334c-4.342-2.577-9.268-3.932-14.331-3.932C12.629,18.724,0,31.354,0,46.875
	c0,15.522,12.629,28.152,28.152,28.152c2.072,0,4.169-0.243,6.251-0.722c3.729,5.912,10.222,9.529,17.271,9.529
	c8.572,0,16.124-5.331,19.085-13.215c2.778,1.361,5.825,2.072,8.928,2.072c11.257,0,20.414-9.156,20.414-20.413
	c0-3.035-0.677-5.908-1.871-8.495C105.695,40.134,110.871,32.597,111.119,23.668z M79.686,69.125c-3.189,0-6.305-0.912-9.015-2.636
	c-0.29-0.183-0.622-0.276-0.958-0.276c-0.221,0-0.445,0.041-0.66,0.126c-0.531,0.21-0.927,0.665-1.066,1.219
	c-1.896,7.482-8.604,12.709-16.314,12.709c-6.205,0-11.892-3.397-14.84-8.868c-0.396-0.734-1.245-1.098-2.052-0.871
	c-2.207,0.616-4.438,0.932-6.63,0.932c-13.558,0-24.585-11.029-24.585-24.586c0-13.557,11.029-24.586,24.585-24.586
	c4.792,0,9.45,1.395,13.465,4.031c0.659,0.428,1.518,0.379,2.12-0.123c1.413-1.176,3.003-2.096,4.698-2.754
	c1.243-0.484,2.542-0.815,3.873-0.993c0.732-0.097,1.471-0.161,2.214-0.161c3.993,0,7.686,1.374,10.594,3.724
	c2.86,2.311,4.961,5.569,5.826,9.4c0.115,0.512,0.449,0.947,0.913,1.188c0.466,0.244,1.014,0.27,1.496,0.073
	c0.171-0.071,0.349-0.123,0.525-0.185c1.87-0.693,3.821-1.058,5.81-1.058c5.402,0,10.205,2.562,13.289,6.528
	c0.757,0.973,1.406,2.03,1.938,3.155c1.03,2.179,1.622,4.601,1.622,7.166C96.534,61.566,88.976,69.125,79.686,69.125z
	 M96.454,40.683c-3.117-4.485-7.981-7.671-13.606-8.549c-1.035-0.161-2.084-0.27-3.162-0.27c-0.186,0-0.371,0.013-0.555,0.02
	c-1.783,0.048-3.537,0.317-5.242,0.823c-1.081-3.295-2.952-6.163-5.361-8.44c-0.025-0.414-0.062-0.825-0.062-1.246
	c0-8.488,5.337-15.744,12.996-18.437c-1.543,2.665-2.362,5.697-2.362,8.871c0,9.832,7.997,17.828,17.826,17.828
	c3.592,0,7.037-1.072,9.941-3.024C105.359,33.789,101.514,38.284,96.454,40.683z"/>
<path id="path1_fill" d="M71.834,95.172c0,2.83,2.297,5.125,5.127,5.125s5.125-2.295,5.125-5.125S76.961,84.7,76.961,84.7
	S71.834,92.342,71.834,95.172z"/>
<path id="path2_fill" d="M49.773,110.771c0,2.832,2.294,5.127,5.128,5.127c2.83,0,5.124-2.295,5.124-5.127
	c0-2.83-5.124-10.472-5.124-10.472S49.773,107.941,49.773,110.771z"/>
<path id="path3_fill" d="M28.826,105.414c0,2.83,2.294,5.124,5.125,5.124s5.128-2.294,5.128-5.124S33.95,94.939,33.95,94.939
	S28.826,102.584,28.826,105.414z"/>
</svg>
