<?xml version="1.0" encoding="utf-8"?>
<svg version="1.1" id="Layer_1" xmlns="http://www.w3.org/2000/svg" xmlns:xlink="http://www.w3.org/1999/xlink" x="0px" y="0px"
	 width="102px" height="64px" viewBox="0 0 102 64" enable-background="new 0 0 102 64" xml:space="preserve">
<path id="path0_fill" d="M97.805,40.926H2.357C1.056,40.926,0,40.125,0,39.143c0-0.984,1.056-1.782,2.357-1.782h95.448
	c1.301,0,2.357,0.796,2.357,1.782C100.162,40.125,99.105,40.926,97.805,40.926z"/>
<path id="path1_fill" d="M97.805,51.625H2.357C1.056,51.625,0,50.823,0,49.844c0-0.985,1.055-1.783,2.357-1.783h95.448
	c1.301,0,2.357,0.797,2.357,1.783C100.162,50.823,99.105,51.625,97.805,51.625z"/>
<path id="path2_fill" d="M97.805,62.766H2.357C1.056,62.766,0,61.965,0,60.982C0,59.998,1.055,59.2,2.357,59.2h95.448
	c1.301,0,2.357,0.796,2.357,1.782C100.162,61.967,99.105,62.766,97.805,62.766z"/>
<path id="path3_fill" d="M20.474,16.706c2.176,0,4.307,0.417,6.334,1.243c0.484,0.199,1.032,0.171,1.497-0.071
	c0.464-0.241,0.798-0.677,0.915-1.187c1.744-7.727,8.497-13.125,16.42-13.125c3.932,0,7.763,1.389,10.784,3.906
	c0.602,0.503,1.463,0.552,2.119,0.123c4.016-2.636,8.672-4.029,13.465-4.029c13.559,0,24.588,11.029,24.588,24.584
	c0,1.506-0.156,2.973-0.418,4.404h3.604c0.228-1.439,0.379-2.903,0.379-4.404C100.16,12.628,87.529,0,72.007,0
	c-5.062,0-9.988,1.355-14.329,3.932C54.195,1.389,49.969,0,45.638,0C36.707,0,29.004,5.659,26.27,13.985
	c-1.882-0.561-3.824-0.845-5.797-0.845c-10.918,0-19.837,8.625-20.362,19.415h3.566C4.198,23.73,11.522,16.706,20.474,16.706z"/>
</svg>
